,Object Type,Object Transform
 1,Table,"(Rotation=(X=0,Y=-0,Z=0,W=1),Translation=(X=-1760,Y=-3290,Z=2230),Scale3D=(X=1,Y=1,Z=1))"
 2,BasicEnemy,"(Rotation=(X=0,Y=-0,Z=0,W=1),Translation=(X=-1260,Y=-2030,Z=1340),Scale3D=(X=1,Y=1,Z=1))"
 3,BossEnemy,"(Rotation=(X=0,Y=-0,Z=0,W=1),Translation=(X=-1840,Y=-1680,Z=1410),Scale3D=(X=5,Y=5,Z=5))"
 4,Chair,"(Rotation=(X=0,Y=-0,Z=0,W=1),Translation=(X=-460,Y=-2970,Z=2010),Scale3D=(X=1,Y=1,Z=1))"
 5,Chair,"(Rotation=(X=0,Y=-0,Z=0,W=1),Translation=(X=-160,Y=-2600,Z=2100),Scale3D=(X=1,Y=1,Z=1))"
 6,Floor,"(Rotation=(X=0,Y=-0,Z=0,W=1),Translation=(X=-1830,Y=-2930,Z=1910),Scale3D=(X=1,Y=1,Z=1))"
 7,Light,"(Rotation=(X=0,Y=-0,Z=0,W=1),Translation=(X=-1290,Y=-1860,Z=1710),Scale3D=(X=1,Y=1,Z=1))"
